Rayela - ETL
…
Si queremos una fila por linea en el texto

my_data <- my_data %>% 
  mutate(text = stringr::str_split(text,"\n")) %>% 
  unnest(text)

vemos:

my_data %>% 
  head(n=100)

# A tibble: 100 × 2
   text                                                     page
   <chr>                                                   <int>
 1 "Julio Cortazar"                                            1
 2 "  Rayuela"                                                 1
 3 ""                                                          1
 4 "Y animado de la esperanza de ser particularmente útil"     2
 5 "a la juventud, y de contribuir a la reforma de las"        2
 6 "costumbres en general, he formado la presente"             2
 7 "colección de máximas, consejos y preceptos, que son"       2
 8 "la base de aquella moral universal, que es tan"            2
 9 "proporcionada a la felicidad espiritual y temporal de"     2
10 "todos los hombres de cualquiera edad, estado y"            2
# ℹ 90 more rows
…
